v {xschem version=2.9.9 file_version=1.2 }
G {}
K {type=subcircuit
format="@name @pinlist @symname"
template="name=x1"
}
V {}
S {}
E {}
L 4 -70 0 -50 0 {}
L 4 70 0 90 0 {}
L 4 -70 30 -50 30 {}
L 4 -70 -30 -50 -30 {}
L 4 -50 -60 -50 60 {}
L 4 -50 60 70 0 {}
L 4 -50 -60 70 0 {}
L 4 10 -60 10 -30 {}
L 4 -10 -60 -10 -40 {}
L 4 10 30 10 60 {}
L 4 -10 40 -10 60 {}
B 5 -72.5 -2.5 -67.5 2.5 {name=CLK dir=in }
B 5 -72.5 -32.5 -67.5 -27.5 {name=VIN1 dir=in }
B 5 -72.5 27.5 -67.5 32.5 {name=VIN2 dir=in }
B 5 7.5 57.5 12.5 62.5 {name=VGND dir=in }
B 5 -12.5 57.5 -7.5 62.5 {name=VNB dir=in }
B 5 -12.5 -62.5 -7.5 -57.5 {name=VPB dir=in }
B 5 7.5 -62.5 12.5 -57.5 {name=VPWR dir=in }
B 5 87.5 -2.5 92.5 2.5 {name=X dir=out }
T {@symname} 20.5 -46 0 0 0.3 0.3 {}
T {@name} -55 -92 0 0 0.2 0.2 {}
T {CLK} -45 -4 0 0 0.2 0.2 {}
T {VIN1} -45 -34 0 0 0.2 0.2 {}
T {VIN2} -45 26 0 0 0.2 0.2 {}
T {VGND} 15 51 0 0 0.2 0.2 {}
T {VNB} -35 51 0 0 0.2 0.2 {}
T {VPB} -35 -64 0 0 0.2 0.2 {}
T {VPWR} 15 -64 0 0 0.2 0.2 {}
T {X} 85 -14 0 1 0.2 0.2 {}
